Date,Time,Thermocouple,Internal Temp
05/09/2018,22:31:15,32.61,22.13
05/09/2018,22:31:16,32.75,22.12
05/09/2018,22:31:17,32.75,22.14
05/09/2018,22:31:18,32.82,22.15
05/09/2018,22:31:19,32.89,22.17
05/09/2018,22:31:20,32.89,22.19
05/09/2018,22:31:21,32.64,22.19
05/09/2018,22:31:22,32.61,22.2
05/09/2018,22:31:23,32.5,22.19
05/09/2018,22:31:24,32.5,22.19
05/09/2018,22:31:25,32.46,22.22
05/09/2018,22:31:26,32.25,22.21
05/09/2018,22:31:27,32.39,22.21
05/09/2018,22:31:28,32.5,22.24
05/09/2018,22:31:29,32.5,22.23
05/09/2018,22:31:30,32.5,22.24
05/09/2018,22:31:31,32.5,22.25
05/09/2018,22:31:32,32.5,22.25
05/09/2018,22:31:33,32.36,22.25
05/09/2018,22:31:34,32.5,22.25
05/09/2018,22:31:35,32.5,22.25
05/09/2018,22:31:36,32.5,22.25
05/09/2018,22:31:37,32.5,22.28
05/09/2018,22:31:38,32.46,22.26
05/09/2018,22:31:39,32.5,22.26
05/09/2018,22:31:40,32.5,22.29
05/09/2018,22:31:41,32.61,22.29
05/09/2018,22:31:42,32.75,22.29
05/09/2018,22:31:43,32.79,22.27
05/09/2018,22:31:44,32.79,22.29
05/09/2018,22:31:45,32.75,22.3
05/09/2018,22:31:46,32.75,22.29
05/09/2018,22:31:47,32.75,22.3
05/09/2018,22:31:48,32.75,22.31
05/09/2018,22:31:49,33.04,22.29
05/09/2018,22:31:50,33.07,22.31
05/09/2018,22:31:51,33.0,22.31
05/09/2018,22:31:52,33.0,22.3
05/09/2018,22:31:53,33.0,22.31
05/09/2018,22:31:54,33.0,22.31
05/09/2018,22:31:55,32.75,22.31
05/09/2018,22:31:56,32.75,22.31
05/09/2018,22:31:57,32.75,22.31
05/09/2018,22:31:58,32.75,22.32
05/09/2018,22:31:59,32.79,22.33
05/09/2018,22:32:00,32.89,22.32
05/09/2018,22:32:01,32.93,22.32
05/09/2018,22:32:02,33.0,22.33
05/09/2018,22:32:03,32.96,22.31
05/09/2018,22:32:04,32.96,22.33
05/09/2018,22:32:05,33.0,22.35
05/09/2018,22:32:06,33.0,22.37
05/09/2018,22:32:07,33.0,22.33
05/09/2018,22:32:08,33.0,22.35
05/09/2018,22:32:09,33.0,22.35
05/09/2018,22:32:10,33.0,22.37
05/09/2018,22:32:11,33.04,22.37
05/09/2018,22:32:12,33.14,22.37
05/09/2018,22:32:13,33.18,22.37
05/09/2018,22:32:14,33.0,22.37
05/09/2018,22:32:15,33.0,22.37
05/09/2018,22:32:16,33.0,22.37
05/09/2018,22:32:17,33.0,22.37
05/09/2018,22:32:18,33.0,22.37
05/09/2018,22:32:19,33.0,22.38
05/09/2018,22:32:20,33.0,22.37
05/09/2018,22:32:21,33.0,22.37
05/09/2018,22:32:22,33.0,22.37
05/09/2018,22:32:23,33.0,22.37
05/09/2018,22:32:24,33.0,22.39
05/09/2018,22:32:25,33.0,22.39
05/09/2018,22:32:26,33.0,22.38
05/09/2018,22:32:27,33.07,22.4
05/09/2018,22:32:28,33.04,22.39
05/09/2018,22:32:29,33.11,22.42
05/09/2018,22:32:30,33.04,22.38
05/09/2018,22:32:31,33.18,22.41
05/09/2018,22:32:32,33.18,22.39
05/09/2018,22:32:33,33.25,22.43
05/09/2018,22:32:34,33.25,22.43
05/09/2018,22:32:35,33.25,22.41
05/09/2018,22:32:36,33.25,22.44
05/09/2018,22:32:37,33.25,22.43
05/09/2018,22:32:38,33.25,22.41
05/09/2018,22:32:39,33.5,22.44
05/09/2018,22:32:40,33.5,22.45
05/09/2018,22:32:41,33.5,22.44
05/09/2018,22:32:42,33.43,22.44
05/09/2018,22:32:43,33.32,22.44
05/09/2018,22:32:44,33.29,22.45
05/09/2018,22:32:45,33.39,22.44
05/09/2018,22:32:46,33.46,22.44
05/09/2018,22:32:47,33.5,22.46
05/09/2018,22:32:48,33.54,22.46
05/09/2018,22:32:49,33.5,22.45
05/09/2018,22:32:50,33.39,22.44
05/09/2018,22:32:51,33.5,22.46
05/09/2018,22:32:52,33.5,22.46
05/09/2018,22:32:53,33.5,22.48
05/09/2018,22:32:54,33.5,22.46
05/09/2018,22:32:55,33.5,22.49
05/09/2018,22:32:56,33.5,22.46
05/09/2018,22:32:57,33.5,22.5
05/09/2018,22:32:58,33.46,22.49
05/09/2018,22:32:59,33.5,22.5
05/09/2018,22:33:00,33.46,22.49
05/09/2018,22:33:01,33.46,22.5
05/09/2018,22:33:02,33.46,22.5
05/09/2018,22:33:03,33.46,22.48
05/09/2018,22:33:04,33.5,22.5
05/09/2018,22:33:05,33.5,22.5
05/09/2018,22:33:06,33.5,22.5
05/09/2018,22:33:07,33.5,22.5
05/09/2018,22:33:08,33.5,22.5
05/09/2018,22:33:09,33.71,22.52
05/09/2018,22:33:10,33.75,22.5
05/09/2018,22:33:11,33.75,22.5
05/09/2018,22:33:12,33.75,22.51
05/09/2018,22:33:13,33.75,22.51
05/09/2018,22:33:14,33.75,22.53
05/09/2018,22:33:15,33.75,22.52
05/09/2018,22:33:16,33.75,22.52
05/09/2018,22:33:17,33.86,22.53
05/09/2018,22:33:18,33.93,22.54
05/09/2018,22:33:19,33.86,22.51
05/09/2018,22:33:20,33.89,22.54
05/09/2018,22:33:21,33.96,22.54
05/09/2018,22:33:22,34.0,22.53
05/09/2018,22:33:23,34.0,22.55
05/09/2018,22:33:24,34.0,22.56
05/09/2018,22:33:25,34.0,22.54
05/09/2018,22:33:26,34.0,22.54
05/09/2018,22:33:27,34.0,22.56
05/09/2018,22:33:28,33.96,22.56
05/09/2018,22:33:29,34.0,22.55
05/09/2018,22:33:30,34.0,22.56
05/09/2018,22:33:31,34.0,22.56
05/09/2018,22:33:32,33.93,22.55
05/09/2018,22:33:33,33.96,22.56
05/09/2018,22:33:34,34.0,22.56
05/09/2018,22:33:35,34.0,22.56
05/09/2018,22:33:36,34.0,22.56
05/09/2018,22:33:37,34.0,22.56
05/09/2018,22:33:38,33.89,22.57
05/09/2018,22:33:39,33.82,22.57
05/09/2018,22:33:40,33.89,22.59
05/09/2018,22:33:41,33.89,22.57
05/09/2018,22:33:42,34.0,22.58
05/09/2018,22:33:43,34.0,22.59
05/09/2018,22:33:44,34.0,22.59
05/09/2018,22:33:45,34.0,22.61
05/09/2018,22:33:46,34.0,22.61
05/09/2018,22:33:47,34.0,22.61
05/09/2018,22:33:48,34.0,22.61
05/09/2018,22:33:49,34.0,22.6
05/09/2018,22:33:50,34.0,22.62
05/09/2018,22:33:51,34.0,22.62
05/09/2018,22:33:52,34.0,22.62
05/09/2018,22:33:53,34.0,22.62
05/09/2018,22:33:54,34.0,22.62
05/09/2018,22:33:55,34.0,22.62
05/09/2018,22:33:56,34.0,22.62
05/09/2018,22:33:57,34.0,22.62
05/09/2018,22:33:58,34.0,22.62
05/09/2018,22:33:59,34.0,22.62
05/09/2018,22:34:00,34.0,22.62
05/09/2018,22:34:01,34.07,22.62
05/09/2018,22:34:02,34.07,22.63
05/09/2018,22:34:03,34.18,22.63
05/09/2018,22:34:04,34.18,22.65
05/09/2018,22:34:05,34.14,22.65
05/09/2018,22:34:06,34.18,22.65
05/09/2018,22:34:07,34.21,22.66
05/09/2018,22:34:08,34.25,22.66
05/09/2018,22:34:09,34.25,22.66
05/09/2018,22:34:10,34.25,22.68
05/09/2018,22:34:11,34.25,22.66
05/09/2018,22:34:12,34.25,22.67
05/09/2018,22:34:13,34.18,22.68
05/09/2018,22:34:14,34.21,22.68
05/09/2018,22:34:16,34.18,22.67
05/09/2018,22:34:17,34.21,22.68
05/09/2018,22:34:18,34.25,22.68
05/09/2018,22:34:19,34.25,22.69
05/09/2018,22:34:20,34.25,22.69
05/09/2018,22:34:21,34.25,22.68
05/09/2018,22:34:22,34.25,22.68
05/09/2018,22:34:23,34.25,22.69
05/09/2018,22:34:24,34.25,22.69
05/09/2018,22:34:25,34.25,22.69
05/09/2018,22:34:26,34.25,22.69
05/09/2018,22:34:27,34.25,22.69
05/09/2018,22:34:28,34.25,22.69
05/09/2018,22:34:29,34.25,22.69
05/09/2018,22:34:30,34.29,22.71
05/09/2018,22:34:31,34.25,22.7
05/09/2018,22:34:32,34.25,22.72
05/09/2018,22:34:33,34.25,22.7
05/09/2018,22:34:34,34.25,22.7
05/09/2018,22:34:35,34.25,22.72
05/09/2018,22:34:36,34.29,22.71
05/09/2018,22:34:37,34.25,22.72
05/09/2018,22:34:38,34.29,22.71
05/09/2018,22:34:39,34.32,22.74
05/09/2018,22:34:40,34.39,22.71
05/09/2018,22:34:41,34.43,22.72
05/09/2018,22:34:42,34.39,22.73
05/09/2018,22:34:43,34.39,22.73
05/09/2018,22:34:44,34.46,22.74
05/09/2018,22:34:45,34.5,22.75
05/09/2018,22:34:46,34.43,22.73
05/09/2018,22:34:47,34.5,22.75
05/09/2018,22:34:48,34.5,22.74
05/09/2018,22:34:49,34.5,22.75
05/09/2018,22:34:50,34.5,22.75
05/09/2018,22:34:51,34.5,22.75
05/09/2018,22:34:52,34.5,22.75
05/09/2018,22:34:53,34.5,22.75
05/09/2018,22:34:54,34.5,22.76
05/09/2018,22:34:55,34.64,22.75
05/09/2018,22:34:56,34.57,22.74
05/09/2018,22:34:57,34.54,22.76
05/09/2018,22:34:58,34.54,22.75
05/09/2018,22:34:59,34.5,22.75
05/09/2018,22:35:00,34.5,22.76
05/09/2018,22:35:01,34.5,22.76
05/09/2018,22:35:02,34.5,22.76
05/09/2018,22:35:03,34.5,22.76
05/09/2018,22:35:04,34.5,22.76
05/09/2018,22:35:05,34.5,22.75
05/09/2018,22:35:06,34.5,22.77
05/09/2018,22:35:07,34.5,22.79
05/09/2018,22:35:08,34.5,22.77
05/09/2018,22:35:09,34.5,22.79
05/09/2018,22:35:10,34.57,22.79
05/09/2018,22:35:11,34.57,22.79
05/09/2018,22:35:12,34.68,22.79
05/09/2018,22:35:13,34.64,22.79
05/09/2018,22:35:14,34.75,22.8
05/09/2018,22:35:15,34.75,22.79
05/09/2018,22:35:16,34.75,22.81
05/09/2018,22:35:17,34.75,22.8
05/09/2018,22:35:18,34.75,22.81
05/09/2018,22:35:19,34.75,22.8
05/09/2018,22:35:20,34.75,22.81
05/09/2018,22:35:21,34.75,22.79
05/09/2018,22:35:22,34.75,22.79
05/09/2018,22:35:23,34.75,22.8
05/09/2018,22:35:24,34.75,22.81
05/09/2018,22:35:25,34.75,22.82
05/09/2018,22:35:26,34.79,22.82
05/09/2018,22:35:27,34.75,22.81
05/09/2018,22:35:28,34.79,22.82
05/09/2018,22:35:29,34.82,22.83
05/09/2018,22:35:30,34.75,22.82
05/09/2018,22:35:31,34.75,22.82
05/09/2018,22:35:32,34.79,22.82
05/09/2018,22:35:33,34.75,22.83
05/09/2018,22:35:34,34.75,22.84
05/09/2018,22:35:35,34.79,22.84
05/09/2018,22:35:36,34.82,22.84
05/09/2018,22:35:37,34.82,22.83
05/09/2018,22:35:38,34.75,22.83
05/09/2018,22:35:39,34.75,22.86
05/09/2018,22:35:40,34.75,22.84
05/09/2018,22:35:41,34.75,22.85
05/09/2018,22:35:42,34.75,22.86
05/09/2018,22:35:43,34.75,22.85
05/09/2018,22:35:44,34.75,22.85
05/09/2018,22:35:45,34.75,22.87
05/09/2018,22:35:46,34.75,22.87
05/09/2018,22:35:47,34.75,22.87
05/09/2018,22:35:48,34.75,22.87
05/09/2018,22:35:49,34.75,22.87
05/09/2018,22:35:50,34.75,22.87
05/09/2018,22:35:51,34.75,22.87
05/09/2018,22:35:52,34.75,22.87
05/09/2018,22:35:53,34.75,22.87
05/09/2018,22:35:54,34.75,22.87
05/09/2018,22:35:55,34.75,22.87
05/09/2018,22:35:56,34.75,22.87
05/09/2018,22:35:57,34.75,22.87
05/09/2018,22:35:58,34.75,22.87
05/09/2018,22:35:59,34.75,22.87
05/09/2018,22:36:00,34.75,22.87
05/09/2018,22:36:01,34.75,22.87
05/09/2018,22:36:02,34.75,22.87
05/09/2018,22:36:03,34.75,22.87
05/09/2018,22:36:04,34.75,22.88
05/09/2018,22:36:05,34.75,22.89
05/09/2018,22:36:06,34.75,22.89
05/09/2018,22:36:07,34.75,22.87
05/09/2018,22:36:08,34.75,22.89
05/09/2018,22:36:09,34.75,22.91
05/09/2018,22:36:10,34.75,22.89
05/09/2018,22:36:11,34.75,22.88
05/09/2018,22:36:12,34.75,22.91
05/09/2018,22:36:13,34.75,22.91
05/09/2018,22:36:14,34.75,22.88
05/09/2018,22:36:15,34.75,22.88
05/09/2018,22:36:16,34.75,22.91
05/09/2018,22:36:17,34.75,22.9
05/09/2018,22:36:18,34.75,22.92
05/09/2018,22:36:19,34.75,22.91
05/09/2018,22:36:20,34.75,22.91
05/09/2018,22:36:21,34.79,22.91
05/09/2018,22:36:22,34.75,22.94
05/09/2018,22:36:23,34.82,22.92
05/09/2018,22:36:24,34.86,22.91
05/09/2018,22:36:25,34.93,22.93
05/09/2018,22:36:26,34.86,22.93
05/09/2018,22:36:27,34.79,22.94
05/09/2018,22:36:28,34.82,22.93
05/09/2018,22:36:29,34.89,22.93
05/09/2018,22:36:30,34.89,22.94
05/09/2018,22:36:31,34.93,22.93
05/09/2018,22:36:32,34.96,22.94
05/09/2018,22:36:33,34.96,22.94
05/09/2018,22:36:34,35.0,22.94
05/09/2018,22:36:35,35.0,22.94
05/09/2018,22:36:36,35.0,22.94
05/09/2018,22:36:37,35.0,22.94
05/09/2018,22:36:38,35.0,22.94
05/09/2018,22:36:39,35.0,22.94
05/09/2018,22:36:40,35.0,22.94
05/09/2018,22:36:41,35.0,22.94
05/09/2018,22:36:42,35.0,22.94
05/09/2018,22:36:43,35.0,22.94
05/09/2018,22:36:44,35.0,22.94
05/09/2018,22:36:45,35.0,22.94
05/09/2018,22:36:46,35.07,22.94
05/09/2018,22:36:47,35.0,22.94
05/09/2018,22:36:48,35.0,22.94
05/09/2018,22:36:49,35.0,22.94
05/09/2018,22:36:50,35.0,22.94
05/09/2018,22:36:51,35.0,22.94
05/09/2018,22:36:52,35.0,22.94
05/09/2018,22:36:53,35.0,22.94
05/09/2018,22:36:54,35.0,22.94
05/09/2018,22:36:55,35.0,22.94
05/09/2018,22:36:56,35.0,22.94
05/09/2018,22:36:57,35.0,22.94
05/09/2018,22:36:58,35.0,22.94
05/09/2018,22:36:59,35.0,22.94
05/09/2018,22:37:00,35.0,22.94
05/09/2018,22:37:01,35.0,22.94
05/09/2018,22:37:02,35.0,22.94
05/09/2018,22:37:03,35.0,22.94
05/09/2018,22:37:04,35.0,22.94
05/09/2018,22:37:05,35.0,22.94
05/09/2018,22:37:06,35.0,22.94
05/09/2018,22:37:07,35.0,22.94
05/09/2018,22:37:08,35.0,22.94
05/09/2018,22:37:09,35.0,22.94
05/09/2018,22:37:10,35.04,22.94
05/09/2018,22:37:11,35.0,22.94
05/09/2018,22:37:12,35.0,22.94
05/09/2018,22:37:13,35.04,22.94
05/09/2018,22:37:14,35.11,22.95
05/09/2018,22:37:15,35.18,22.95
05/09/2018,22:37:16,35.14,22.94
05/09/2018,22:37:17,35.25,22.95
05/09/2018,22:37:18,35.21,22.94
05/09/2018,22:37:19,35.25,22.95
05/09/2018,22:37:20,35.25,22.94
05/09/2018,22:37:21,35.18,22.96
05/09/2018,22:37:22,35.21,22.94
05/09/2018,22:37:23,35.18,22.95
05/09/2018,22:37:24,35.18,22.96
05/09/2018,22:37:25,35.04,22.95
05/09/2018,22:37:26,35.14,22.96
05/09/2018,22:37:27,35.11,22.94
05/09/2018,22:37:28,35.07,22.94
05/09/2018,22:37:29,35.11,22.96
05/09/2018,22:37:30,35.11,22.96
05/09/2018,22:37:31,35.21,22.96
05/09/2018,22:37:32,35.11,22.97
05/09/2018,22:37:33,35.11,22.96
05/09/2018,22:37:34,35.18,22.98
05/09/2018,22:37:35,35.11,22.97
05/09/2018,22:37:36,35.04,22.96
05/09/2018,22:37:37,35.11,22.97
05/09/2018,22:37:38,35.11,22.98
05/09/2018,22:37:39,35.21,22.99
05/09/2018,22:37:40,35.18,22.98
05/09/2018,22:37:41,35.14,22.97
05/09/2018,22:37:42,35.18,22.98
05/09/2018,22:37:43,35.21,22.98
05/09/2018,22:37:44,35.18,22.99
05/09/2018,22:37:45,35.18,22.99
05/09/2018,22:37:46,35.21,22.99
05/09/2018,22:37:47,35.18,23.0
05/09/2018,22:37:48,35.21,23.0
05/09/2018,22:37:49,35.18,22.99
05/09/2018,22:37:50,35.21,23.0
05/09/2018,22:37:51,35.25,23.0
05/09/2018,22:37:52,35.21,22.99
05/09/2018,22:37:53,35.25,23.0
05/09/2018,22:37:54,35.18,22.99
05/09/2018,22:37:55,35.25,23.0
05/09/2018,22:37:56,35.25,23.0
05/09/2018,22:37:57,35.25,23.0
05/09/2018,22:37:58,35.25,23.01
05/09/2018,22:37:59,35.25,23.0
05/09/2018,22:38:00,35.25,23.0
05/09/2018,22:38:01,35.25,23.02
05/09/2018,22:38:02,35.25,23.01
05/09/2018,22:38:03,35.25,23.0
05/09/2018,22:38:04,35.25,23.0
05/09/2018,22:38:05,35.25,23.0
05/09/2018,22:38:06,35.21,23.01
05/09/2018,22:38:07,35.25,23.02
05/09/2018,22:38:08,35.25,23.02
05/09/2018,22:38:09,35.14,23.01
05/09/2018,22:38:10,35.18,23.01
05/09/2018,22:38:11,35.14,23.01
05/09/2018,22:38:12,35.14,23.04
05/09/2018,22:38:13,35.07,23.02
05/09/2018,22:38:14,35.07,23.02
05/09/2018,22:38:15,35.11,23.03
05/09/2018,22:38:16,35.18,23.04
05/09/2018,22:38:17,35.21,23.02
05/09/2018,22:38:18,35.21,23.04
05/09/2018,22:38:19,35.18,23.03
05/09/2018,22:38:20,35.18,23.04
05/09/2018,22:38:21,35.21,23.04
05/09/2018,22:38:22,35.25,23.03
05/09/2018,22:38:23,35.18,23.04
05/09/2018,22:38:24,35.21,23.05
05/09/2018,22:38:25,35.21,23.04
05/09/2018,22:38:26,35.25,23.04
05/09/2018,22:38:27,35.25,23.04
05/09/2018,22:38:28,35.25,23.04
05/09/2018,22:38:29,35.25,23.02
05/09/2018,22:38:30,35.25,23.06
05/09/2018,22:38:31,35.25,23.05
05/09/2018,22:38:32,35.25,23.05
05/09/2018,22:38:33,35.25,23.06
05/09/2018,22:38:34,35.25,23.06
05/09/2018,22:38:35,35.25,23.06
05/09/2018,22:38:36,35.25,23.05
05/09/2018,22:38:37,35.25,23.05
05/09/2018,22:38:38,35.25,23.05
05/09/2018,22:38:39,35.25,23.05
05/09/2018,22:38:40,35.25,23.06
05/09/2018,22:38:41,35.25,23.06
05/09/2018,22:38:42,35.25,23.06
05/09/2018,22:38:43,35.25,23.07
05/09/2018,22:38:44,35.25,23.07
05/09/2018,22:38:45,35.25,23.05
05/09/2018,22:38:46,35.25,23.07
05/09/2018,22:38:47,35.25,23.06
05/09/2018,22:38:48,35.25,23.06
05/09/2018,22:38:49,35.25,23.08
05/09/2018,22:38:50,35.25,23.06
05/09/2018,22:38:51,35.25,23.06
05/09/2018,22:38:52,35.25,23.07
05/09/2018,22:38:53,35.25,23.07
05/09/2018,22:38:54,35.25,23.06
05/09/2018,22:38:55,35.25,23.06
05/09/2018,22:38:56,35.25,23.07
05/09/2018,22:38:57,35.25,23.08
05/09/2018,22:38:58,35.25,23.1
05/09/2018,22:38:59,35.25,23.07
05/09/2018,22:39:00,35.25,23.08
05/09/2018,22:39:01,35.25,23.08
05/09/2018,22:39:02,35.25,23.09
05/09/2018,22:39:03,35.25,23.09
05/09/2018,22:39:04,35.25,23.09
05/09/2018,22:39:05,35.25,23.07
05/09/2018,22:39:06,35.25,23.08
05/09/2018,22:39:07,35.25,23.08
05/09/2018,22:39:08,35.25,23.09
05/09/2018,22:39:09,35.25,23.08
05/09/2018,22:39:10,35.25,23.12
05/09/2018,22:39:11,35.25,23.08
05/09/2018,22:39:12,35.25,23.11
05/09/2018,22:39:13,35.25,23.09
05/09/2018,22:39:14,35.25,23.12
05/09/2018,22:39:15,35.25,23.09
05/09/2018,22:39:16,35.25,23.12
05/09/2018,22:39:17,35.21,23.09
05/09/2018,22:39:18,35.25,23.11
05/09/2018,22:39:19,35.25,23.12
05/09/2018,22:39:20,35.25,23.12
05/09/2018,22:39:21,35.25,23.12
05/09/2018,22:39:22,35.18,23.11
05/09/2018,22:39:23,35.25,23.12
05/09/2018,22:39:24,35.25,23.12
05/09/2018,22:39:25,35.25,23.12
05/09/2018,22:39:26,35.25,23.12
05/09/2018,22:39:27,35.25,23.12
05/09/2018,22:39:28,35.25,23.12
05/09/2018,22:39:29,35.29,23.1
05/09/2018,22:39:30,35.25,23.12
05/09/2018,22:39:31,35.25,23.12
05/09/2018,22:39:32,35.25,23.12
05/09/2018,22:39:33,35.25,23.12
05/09/2018,22:39:34,35.25,23.12
05/09/2018,22:39:35,35.25,23.12
05/09/2018,22:39:36,35.25,23.12
05/09/2018,22:39:37,35.25,23.12
05/09/2018,22:39:38,35.25,23.12
05/09/2018,22:39:39,35.29,23.12
05/09/2018,22:39:40,35.25,23.12
05/09/2018,22:39:41,35.25,23.12
05/09/2018,22:39:42,35.29,23.13
05/09/2018,22:39:43,35.25,23.12
05/09/2018,22:39:44,35.32,23.13
05/09/2018,22:39:45,35.25,23.13
05/09/2018,22:39:46,35.25,23.12
05/09/2018,22:39:48,35.25,23.12
05/09/2018,22:39:49,35.25,23.12
05/09/2018,22:39:50,35.29,23.13
05/09/2018,22:39:51,35.25,23.13
05/09/2018,22:39:52,35.25,23.12
05/09/2018,22:39:53,35.25,23.12
05/09/2018,22:39:54,35.29,23.12
05/09/2018,22:39:55,35.36,23.12
05/09/2018,22:39:56,35.32,23.12
05/09/2018,22:39:57,35.32,23.13
05/09/2018,22:39:58,35.29,23.12
05/09/2018,22:39:59,35.29,23.14
05/09/2018,22:40:00,35.29,23.13
05/09/2018,22:40:01,35.25,23.16
05/09/2018,22:40:02,35.29,23.16
05/09/2018,22:40:03,35.25,23.13
05/09/2018,22:40:04,35.29,23.13
05/09/2018,22:40:05,35.29,23.13
05/09/2018,22:40:06,35.39,23.15
05/09/2018,22:40:07,35.32,23.15
05/09/2018,22:40:08,35.29,23.13
05/09/2018,22:40:09,35.32,23.13
05/09/2018,22:40:10,35.29,23.15
05/09/2018,22:40:11,35.32,23.16
05/09/2018,22:40:12,35.36,23.15
05/09/2018,22:40:13,35.32,23.14
05/09/2018,22:40:14,35.25,23.14
05/09/2018,22:40:15,35.25,23.13
05/09/2018,22:40:16,35.36,23.16
05/09/2018,22:40:17,35.25,23.16
05/09/2018,22:40:18,35.29,23.15
05/09/2018,22:40:19,35.25,23.15
05/09/2018,22:40:20,35.25,23.16
05/09/2018,22:40:21,35.25,23.17
05/09/2018,22:40:22,35.36,23.17
05/09/2018,22:40:23,35.39,23.19
05/09/2018,22:40:24,35.29,23.17
05/09/2018,22:40:25,35.25,23.15
05/09/2018,22:40:26,35.25,23.18
05/09/2018,22:40:27,35.25,23.16
05/09/2018,22:40:28,35.25,23.15
05/09/2018,22:40:29,35.25,23.18
05/09/2018,22:40:30,35.25,23.16
05/09/2018,22:40:31,35.25,23.17
05/09/2018,22:40:32,35.25,23.17
05/09/2018,22:40:33,35.25,23.18
05/09/2018,22:40:34,35.25,23.18
05/09/2018,22:40:35,35.21,23.17
05/09/2018,22:40:36,35.25,23.19
05/09/2018,22:40:37,35.25,23.18
05/09/2018,22:40:38,35.25,23.19
05/09/2018,22:40:39,35.25,23.18
05/09/2018,22:40:40,35.29,23.2
05/09/2018,22:40:41,35.25,23.18
05/09/2018,22:40:42,35.25,23.17
05/09/2018,22:40:43,35.25,23.19
05/09/2018,22:40:44,35.25,23.19
05/09/2018,22:40:45,35.25,23.19
05/09/2018,22:40:46,35.25,23.19
05/09/2018,22:40:47,35.25,23.19
05/09/2018,22:40:48,35.25,23.19
05/09/2018,22:40:49,35.25,23.19
05/09/2018,22:40:50,35.25,23.19
05/09/2018,22:40:51,35.25,23.19
05/09/2018,22:40:52,35.25,23.2
05/09/2018,22:40:53,35.25,23.19
05/09/2018,22:40:54,35.29,23.19
05/09/2018,22:40:55,35.29,23.19
05/09/2018,22:40:56,35.32,23.19
05/09/2018,22:40:57,35.32,23.19
05/09/2018,22:40:58,35.36,23.2
05/09/2018,22:40:59,35.36,23.19
05/09/2018,22:41:00,35.29,23.2
05/09/2018,22:41:01,35.32,23.19
05/09/2018,22:41:02,35.32,23.19
05/09/2018,22:41:03,35.43,23.2
05/09/2018,22:41:04,35.43,23.21
05/09/2018,22:41:05,35.46,23.21
05/09/2018,22:41:06,35.5,23.19
05/09/2018,22:41:07,35.5,23.21
05/09/2018,22:41:08,35.43,23.2
05/09/2018,22:41:09,35.29,23.19
05/09/2018,22:41:10,35.25,23.21
05/09/2018,22:41:11,35.25,23.19
05/09/2018,22:41:12,35.25,23.21
05/09/2018,22:41:13,35.25,23.2
05/09/2018,22:41:14,35.25,23.2
05/09/2018,22:41:15,35.25,23.2
05/09/2018,22:41:16,35.25,23.21
05/09/2018,22:41:17,35.25,23.23
05/09/2018,22:41:18,35.25,23.21
05/09/2018,22:41:19,35.29,23.21
05/09/2018,22:41:20,35.29,23.21
05/09/2018,22:41:21,35.39,23.21
05/09/2018,22:41:22,35.43,23.21
05/09/2018,22:41:23,35.32,23.21
05/09/2018,22:41:24,35.29,23.21
05/09/2018,22:41:25,35.25,23.21
05/09/2018,22:41:26,35.25,23.21
05/09/2018,22:41:27,35.29,23.23
05/09/2018,22:41:28,35.25,23.21
05/09/2018,22:41:29,35.25,23.24
05/09/2018,22:41:30,35.25,23.24
05/09/2018,22:41:31,35.29,23.2
05/09/2018,22:41:32,35.25,23.21
05/09/2018,22:41:33,35.25,23.21
05/09/2018,22:41:34,35.25,23.21
05/09/2018,22:41:35,35.25,23.21
05/09/2018,22:41:36,35.32,23.22
05/09/2018,22:41:37,35.29,23.21
05/09/2018,22:41:38,35.25,23.22
05/09/2018,22:41:39,35.36,23.24
05/09/2018,22:41:40,35.39,23.23
05/09/2018,22:41:41,35.43,23.23
05/09/2018,22:41:42,35.32,23.23
05/09/2018,22:41:43,35.29,23.21
05/09/2018,22:41:44,35.36,23.24
05/09/2018,22:41:45,35.39,23.24
05/09/2018,22:41:46,35.46,23.23
05/09/2018,22:41:47,35.29,23.25
05/09/2018,22:41:48,35.29,23.24
05/09/2018,22:41:49,35.36,23.24
05/09/2018,22:41:50,35.39,23.25
05/09/2018,22:41:51,35.32,23.22
05/09/2018,22:41:52,35.29,23.23
05/09/2018,22:41:53,35.25,23.24
05/09/2018,22:41:54,35.25,23.24
05/09/2018,22:41:55,35.25,23.25
05/09/2018,22:41:56,35.25,23.24
05/09/2018,22:41:57,35.25,23.24
05/09/2018,22:41:58,35.25,23.23
05/09/2018,22:41:59,35.25,23.23
05/09/2018,22:42:00,35.25,23.23
05/09/2018,22:42:01,35.25,23.25
05/09/2018,22:42:02,35.25,23.24
05/09/2018,22:42:03,35.25,23.24
05/09/2018,22:42:04,35.25,23.22
05/09/2018,22:42:05,35.25,23.25
05/09/2018,22:42:06,35.25,23.25
05/09/2018,22:42:07,35.25,23.25
05/09/2018,22:42:08,35.25,23.25
05/09/2018,22:42:09,35.25,23.26
05/09/2018,22:42:10,35.25,23.25
05/09/2018,22:42:11,35.25,23.25
05/09/2018,22:42:12,35.25,23.24
05/09/2018,22:42:13,35.25,23.25
05/09/2018,22:42:14,35.25,23.26
05/09/2018,22:42:15,35.25,23.25
05/09/2018,22:42:16,35.25,23.24
05/09/2018,22:42:17,35.25,23.25
05/09/2018,22:42:18,35.25,23.25
05/09/2018,22:42:19,35.25,23.25
05/09/2018,22:42:20,35.25,23.25
05/09/2018,22:42:21,35.25,23.26
05/09/2018,22:42:22,35.25,23.25
05/09/2018,22:42:23,35.25,23.25
05/09/2018,22:42:24,35.25,23.25
05/09/2018,22:42:25,35.25,23.27
05/09/2018,22:42:26,35.43,23.25
05/09/2018,22:42:27,35.43,23.26
05/09/2018,22:42:28,35.5,23.25
05/09/2018,22:42:29,35.5,23.25
05/09/2018,22:42:30,35.5,23.28
05/09/2018,22:42:31,35.5,23.26
05/09/2018,22:42:32,35.5,23.25
05/09/2018,22:42:33,35.5,23.25
05/09/2018,22:42:34,35.5,23.27
05/09/2018,22:42:35,35.5,23.26
05/09/2018,22:42:36,35.5,23.25
05/09/2018,22:42:37,35.5,23.25
05/09/2018,22:42:38,35.5,23.26
05/09/2018,22:42:39,35.5,23.25
05/09/2018,22:42:40,35.5,23.25
05/09/2018,22:42:41,35.5,23.27
05/09/2018,22:42:42,35.5,23.27
05/09/2018,22:42:43,35.5,23.26
05/09/2018,22:42:44,35.5,23.29
05/09/2018,22:42:45,35.43,23.26
05/09/2018,22:42:46,35.43,23.27
05/09/2018,22:42:47,35.43,23.26
05/09/2018,22:42:48,35.32,23.27
05/09/2018,22:42:49,35.46,23.27
05/09/2018,22:42:50,35.5,23.26
05/09/2018,22:42:51,35.5,23.28
05/09/2018,22:42:52,35.5,23.25
05/09/2018,22:42:53,35.5,23.27
05/09/2018,22:42:54,35.5,23.26
05/09/2018,22:42:55,35.5,23.26
05/09/2018,22:42:56,35.5,23.29
05/09/2018,22:42:57,35.5,23.26
05/09/2018,22:42:58,35.5,23.29
05/09/2018,22:42:59,35.5,23.29
05/09/2018,22:43:00,35.5,23.27
05/09/2018,22:43:01,35.5,23.28
05/09/2018,22:43:02,35.5,23.28
05/09/2018,22:43:03,35.5,23.29
05/09/2018,22:43:04,35.5,23.29
05/09/2018,22:43:05,35.5,23.29
05/09/2018,22:43:06,35.5,23.28
05/09/2018,22:43:07,35.5,23.29
05/09/2018,22:43:08,35.5,23.29
05/09/2018,22:43:09,35.5,23.28
05/09/2018,22:43:10,35.5,23.29
05/09/2018,22:43:11,35.5,23.3
05/09/2018,22:43:12,35.5,23.29
05/09/2018,22:43:13,35.5,23.3
05/09/2018,22:43:14,35.5,23.3
05/09/2018,22:43:15,35.5,23.29
05/09/2018,22:43:16,35.5,23.3
05/09/2018,22:43:17,35.5,23.29
05/09/2018,22:43:18,35.5,23.31
05/09/2018,22:43:19,35.5,23.29
05/09/2018,22:43:20,35.5,23.29
05/09/2018,22:43:21,35.5,23.3
05/09/2018,22:43:22,35.5,23.3
05/09/2018,22:43:23,35.5,23.29
05/09/2018,22:43:24,35.5,23.31
05/09/2018,22:43:25,35.5,23.29
05/09/2018,22:43:26,35.5,23.31
05/09/2018,22:43:27,35.5,23.31
05/09/2018,22:43:28,35.5,23.31
05/09/2018,22:43:29,35.5,23.3
05/09/2018,22:43:30,35.5,23.31
05/09/2018,22:43:31,35.5,23.29
05/09/2018,22:43:32,35.5,23.31
05/09/2018,22:43:33,35.5,23.31
05/09/2018,22:43:34,35.5,23.31
05/09/2018,22:43:35,35.5,23.3
05/09/2018,22:43:36,35.5,23.3
05/09/2018,22:43:37,35.5,23.3
05/09/2018,22:43:38,35.46,23.3
05/09/2018,22:43:39,35.5,23.31
05/09/2018,22:43:40,35.5,23.31
05/09/2018,22:43:41,35.5,23.3
05/09/2018,22:43:42,35.5,23.31
05/09/2018,22:43:43,35.5,23.32
05/09/2018,22:43:44,35.5,23.31
05/09/2018,22:43:45,35.5,23.31
05/09/2018,22:43:46,35.5,23.32
05/09/2018,22:43:47,35.5,23.31
05/09/2018,22:43:48,35.5,23.31
05/09/2018,22:43:49,35.5,23.31
05/09/2018,22:43:50,35.5,23.31
05/09/2018,22:43:51,35.5,23.32
05/09/2018,22:43:52,35.5,23.31
05/09/2018,22:43:53,35.5,23.31
05/09/2018,22:43:54,35.5,23.31
05/09/2018,22:43:55,35.32,23.31
05/09/2018,22:43:56,35.46,23.31
05/09/2018,22:43:57,35.32,23.32
05/09/2018,22:43:58,35.29,23.32
05/09/2018,22:43:59,35.29,23.31
05/09/2018,22:44:00,35.29,23.31
05/09/2018,22:44:01,35.25,23.31
05/09/2018,22:44:02,35.32,23.34
05/09/2018,22:44:03,35.32,23.32
05/09/2018,22:44:04,35.29,23.31
05/09/2018,22:44:05,35.29,23.31
05/09/2018,22:44:06,35.36,23.34
05/09/2018,22:44:07,35.29,23.32
05/09/2018,22:44:08,35.29,23.32
05/09/2018,22:44:09,35.25,23.31
05/09/2018,22:44:10,35.29,23.33
05/09/2018,22:44:11,35.29,23.32
05/09/2018,22:44:12,35.29,23.32
05/09/2018,22:44:13,35.32,23.31
05/09/2018,22:44:14,35.29,23.31
05/09/2018,22:44:15,35.32,23.32
05/09/2018,22:44:16,35.32,23.32
05/09/2018,22:44:17,35.39,23.33
05/09/2018,22:44:18,35.32,23.32
05/09/2018,22:44:19,35.32,23.33
05/09/2018,22:44:20,35.32,23.32
05/09/2018,22:44:21,35.36,23.35
05/09/2018,22:44:22,35.39,23.34
05/09/2018,22:44:23,35.32,23.33
05/09/2018,22:44:24,35.32,23.32
05/09/2018,22:44:25,35.29,23.33
05/09/2018,22:44:26,35.29,23.33
05/09/2018,22:44:27,35.25,23.32
05/09/2018,22:44:28,35.25,23.35
05/09/2018,22:44:29,35.29,23.34
05/09/2018,22:44:30,35.36,23.33
05/09/2018,22:44:31,35.43,23.32
05/09/2018,22:44:32,35.43,23.33
05/09/2018,22:44:33,35.5,23.33
05/09/2018,22:44:34,35.46,23.34
05/09/2018,22:44:35,35.36,23.35
05/09/2018,22:44:36,35.25,23.35
05/09/2018,22:44:37,35.29,23.36
05/09/2018,22:44:38,35.32,23.32
05/09/2018,22:44:39,35.36,23.35
05/09/2018,22:44:40,35.29,23.34
05/09/2018,22:44:41,35.36,23.34
05/09/2018,22:44:42,35.46,23.35
05/09/2018,22:44:43,35.43,23.34
05/09/2018,22:44:44,35.5,23.34
05/09/2018,22:44:45,35.5,23.34
05/09/2018,22:44:46,35.46,23.32
05/09/2018,22:44:47,35.46,23.37
05/09/2018,22:44:48,35.5,23.33
05/09/2018,22:44:49,35.5,23.37
05/09/2018,22:44:50,35.5,23.35
05/09/2018,22:44:51,35.5,23.34
05/09/2018,22:44:52,35.5,23.35
05/09/2018,22:44:53,35.5,23.35
05/09/2018,22:44:54,35.5,23.36
05/09/2018,22:44:55,35.5,23.37
05/09/2018,22:44:56,35.5,23.36
05/09/2018,22:44:57,35.5,23.35
05/09/2018,22:44:58,35.5,23.34
05/09/2018,22:44:59,35.5,23.35
05/09/2018,22:45:00,35.5,23.36
05/09/2018,22:45:01,35.5,23.36
05/09/2018,22:45:02,35.5,23.37
05/09/2018,22:45:03,35.5,23.35
05/09/2018,22:45:04,35.5,23.35
05/09/2018,22:45:05,35.5,23.36
05/09/2018,22:45:06,35.5,23.35
05/09/2018,22:45:07,35.5,23.35
05/09/2018,22:45:08,35.5,23.36
05/09/2018,22:45:09,35.5,23.34
05/09/2018,22:45:10,35.5,23.37
05/09/2018,22:45:11,35.5,23.36
05/09/2018,22:45:12,35.5,23.37
05/09/2018,22:45:13,35.5,23.36
05/09/2018,22:45:14,35.5,23.37
05/09/2018,22:45:15,35.5,23.35
05/09/2018,22:45:16,35.5,23.37
05/09/2018,22:45:17,35.5,23.37
05/09/2018,22:45:18,35.5,23.37
05/09/2018,22:45:20,35.5,23.37
05/09/2018,22:45:21,35.5,23.37
05/09/2018,22:45:22,35.5,23.37
05/09/2018,22:45:23,35.5,23.37
05/09/2018,22:45:24,35.5,23.37
05/09/2018,22:45:25,35.5,23.37
05/09/2018,22:45:26,35.5,23.37
05/09/2018,22:45:27,35.5,23.37
05/09/2018,22:45:28,35.5,23.37
05/09/2018,22:45:29,35.5,23.37
05/09/2018,22:45:30,35.5,23.37
05/09/2018,22:45:31,35.5,23.37
05/09/2018,22:45:32,35.5,23.36
05/09/2018,22:45:33,35.5,23.37
05/09/2018,22:45:34,35.5,23.37
05/09/2018,22:45:35,35.5,23.36
05/09/2018,22:45:36,35.5,23.37
05/09/2018,22:45:37,35.5,23.37
05/09/2018,22:45:38,35.5,23.37
05/09/2018,22:45:39,35.5,23.37
05/09/2018,22:45:40,35.5,23.37
05/09/2018,22:45:41,35.5,23.37
05/09/2018,22:45:42,35.5,23.37
05/09/2018,22:45:43,35.5,23.37
05/09/2018,22:45:44,35.5,23.37
05/09/2018,22:45:45,35.5,23.37
05/09/2018,22:45:46,35.5,23.37
05/09/2018,22:45:47,35.5,23.37
05/09/2018,22:45:48,35.5,23.37
05/09/2018,22:45:49,35.5,23.37
05/09/2018,22:45:50,35.5,23.37
05/09/2018,22:45:51,35.5,23.37
05/09/2018,22:45:52,35.5,23.37
05/09/2018,22:45:53,35.5,23.37
05/09/2018,22:45:54,35.5,23.37
05/09/2018,22:45:55,35.5,23.37
05/09/2018,22:45:56,35.5,23.37
05/09/2018,22:45:57,35.5,23.37
05/09/2018,22:45:58,35.5,23.38
05/09/2018,22:45:59,35.5,23.37
05/09/2018,22:46:00,35.5,23.37
05/09/2018,22:46:01,35.5,23.37
05/09/2018,22:46:02,35.5,23.37
05/09/2018,22:46:03,35.5,23.37
05/09/2018,22:46:04,35.5,23.37
05/09/2018,22:46:05,35.5,23.38
05/09/2018,22:46:06,35.5,23.37
05/09/2018,22:46:07,35.5,23.39
05/09/2018,22:46:08,35.5,23.37
05/09/2018,22:46:09,35.5,23.38
05/09/2018,22:46:10,35.5,23.37
05/09/2018,22:46:11,35.29,23.37
05/09/2018,22:46:12,35.25,23.37
05/09/2018,22:46:13,35.25,23.37
05/09/2018,22:46:14,35.25,23.38
05/09/2018,22:46:15,35.25,23.37
05/09/2018,22:46:16,35.25,23.38
05/09/2018,22:46:17,35.25,23.39
05/09/2018,22:46:18,35.25,23.39
05/09/2018,22:46:19,35.25,23.37
05/09/2018,22:46:20,35.25,23.38
05/09/2018,22:46:21,35.25,23.4
05/09/2018,22:46:22,35.25,23.38
05/09/2018,22:46:23,35.25,23.39
05/09/2018,22:46:24,35.25,23.38
05/09/2018,22:46:25,35.25,23.37
05/09/2018,22:46:26,35.25,23.39
05/09/2018,22:46:27,35.25,23.38
05/09/2018,22:46:28,35.25,23.39
05/09/2018,22:46:29,35.14,23.37
05/09/2018,22:46:30,35.14,23.38
05/09/2018,22:46:31,35.07,23.39
05/09/2018,22:46:32,35.21,23.38
05/09/2018,22:46:33,35.11,23.38
05/09/2018,22:46:34,35.11,23.38
05/09/2018,22:46:35,35.25,23.39
05/09/2018,22:46:36,35.25,23.38
05/09/2018,22:46:37,35.25,23.37
05/09/2018,22:46:38,35.25,23.37
05/09/2018,22:46:39,35.25,23.38
05/09/2018,22:46:40,35.25,23.37
05/09/2018,22:46:41,35.25,23.37
05/09/2018,22:46:42,35.25,23.37
05/09/2018,22:46:43,35.25,23.39
05/09/2018,22:46:44,35.25,23.38
05/09/2018,22:46:45,35.25,23.39
05/09/2018,22:46:46,35.25,23.38
05/09/2018,22:46:47,35.5,23.42
05/09/2018,22:46:48,35.25,23.39
05/09/2018,22:46:49,35.25,23.4
05/09/2018,22:46:50,35.25,23.39
05/09/2018,22:46:51,35.25,23.41
05/09/2018,22:46:52,35.0,23.39
05/09/2018,22:46:53,34.93,23.39
05/09/2018,22:46:54,34.86,23.41
05/09/2018,22:46:55,34.61,23.38
05/09/2018,22:46:56,34.68,23.4
05/09/2018,22:46:57,34.89,23.37
05/09/2018,22:46:59,35.11,23.41
05/09/2018,22:47:00,35.21,23.41
05/09/2018,22:47:01,28.68,23.4
05/09/2018,22:47:02,25.18,23.4
05/09/2018,22:47:03,23.89,23.4
05/09/2018,22:47:04,24.21,23.38
05/09/2018,22:47:05,24.75,23.37
05/09/2018,22:47:06,25.29,23.4
05/09/2018,22:47:07,23.68,23.38
05/09/2018,22:47:08,22.93,23.41
05/09/2018,22:47:09,22.82,23.4
05/09/2018,22:47:10,21.86,23.42
05/09/2018,22:47:11,23.61,23.42
05/09/2018,22:47:12,25.54,23.42
05/09/2018,22:47:13,26.11,23.39
05/09/2018,22:47:14,26.5,23.41
05/09/2018,22:47:15,26.57,23.4
05/09/2018,22:47:16,27.25,23.4
05/09/2018,22:47:17,27.75,23.4
05/09/2018,22:47:18,28.14,23.4
05/09/2018,22:47:19,28.32,23.38
05/09/2018,22:47:20,28.57,23.41
05/09/2018,22:47:21,28.57,23.42
05/09/2018,22:47:22,28.68,23.41
05/09/2018,22:47:23,28.71,23.4
05/09/2018,22:47:24,28.82,23.42
05/09/2018,22:47:25,28.96,23.44
05/09/2018,22:47:26,29.0,23.41
05/09/2018,22:47:27,29.43,23.42
05/09/2018,22:47:28,29.5,23.42
05/09/2018,22:47:29,29.61,23.43
05/09/2018,22:47:30,29.71,23.44
05/09/2018,22:47:31,29.75,23.43
05/09/2018,22:47:32,29.86,23.41
05/09/2018,22:47:33,29.96,23.41
05/09/2018,22:47:34,30.0,23.42
05/09/2018,22:47:36,30.07,23.4
05/09/2018,22:47:37,30.21,23.41
05/09/2018,22:47:38,30.04,23.43
05/09/2018,22:47:39,30.0,23.43
05/09/2018,22:47:40,30.0,23.44
05/09/2018,22:47:41,30.0,23.44
05/09/2018,22:47:42,30.0,23.43
05/09/2018,22:47:43,30.07,23.44
05/09/2018,22:47:44,30.21,23.43
05/09/2018,22:47:45,30.25,23.44
05/09/2018,22:47:46,30.25,23.43
05/09/2018,22:47:47,30.36,23.43
05/09/2018,22:47:48,30.39,23.42
05/09/2018,22:47:49,30.43,23.42
05/09/2018,22:47:50,30.5,23.43
05/09/2018,22:47:51,30.5,23.42
05/09/2018,22:47:52,30.5,23.43
05/09/2018,22:47:53,30.5,23.41
05/09/2018,22:47:54,30.54,23.44
05/09/2018,22:47:55,30.71,23.44
05/09/2018,22:47:56,30.68,23.44
05/09/2018,22:47:57,30.71,23.44
05/09/2018,22:47:58,30.68,23.44
05/09/2018,22:47:59,30.75,23.43
05/09/2018,22:48:00,30.71,23.44
05/09/2018,22:48:01,30.75,23.44
05/09/2018,22:48:02,30.75,23.44
05/09/2018,22:48:03,30.75,23.44
05/09/2018,22:48:04,30.75,23.44
05/09/2018,22:48:05,30.75,23.43
05/09/2018,22:48:06,30.79,23.43
05/09/2018,22:48:07,30.75,23.42
05/09/2018,22:48:08,30.82,23.44
05/09/2018,22:48:09,30.96,23.43
05/09/2018,22:48:10,30.89,23.42
05/09/2018,22:48:11,31.0,23.42
05/09/2018,22:48:12,30.93,23.44
05/09/2018,22:48:13,30.96,23.43
05/09/2018,22:48:14,31.0,23.44
05/09/2018,22:48:15,31.0,23.43
05/09/2018,22:48:16,31.0,23.44
05/09/2018,22:48:17,31.0,23.43
05/09/2018,22:48:18,31.0,23.44
05/09/2018,22:48:19,31.0,23.43
05/09/2018,22:48:20,31.0,23.44
05/09/2018,22:48:21,31.0,23.43
05/09/2018,22:48:22,31.0,23.44
05/09/2018,22:48:23,31.0,23.44
05/09/2018,22:48:24,31.0,23.44
05/09/2018,22:48:25,31.0,23.44
05/09/2018,22:48:26,31.0,23.44
05/09/2018,22:48:27,31.0,23.43
05/09/2018,22:48:28,31.04,23.44
05/09/2018,22:48:29,31.14,23.44
05/09/2018,22:48:30,31.25,23.45
05/09/2018,22:48:31,31.25,23.44
05/09/2018,22:48:32,31.25,23.45
05/09/2018,22:48:33,31.25,23.44
05/09/2018,22:48:34,31.25,23.44
05/09/2018,22:48:35,31.25,23.44
05/09/2018,22:48:36,31.25,23.45
05/09/2018,22:48:37,31.25,23.45
05/09/2018,22:48:38,31.25,23.45
05/09/2018,22:48:39,31.25,23.44
05/09/2018,22:48:40,31.29,23.45
05/09/2018,22:48:41,31.39,23.44
05/09/2018,22:48:42,31.46,23.44
05/09/2018,22:48:43,31.5,23.44
05/09/2018,22:48:44,31.5,23.45
05/09/2018,22:48:45,31.5,23.46
05/09/2018,22:48:46,31.5,23.44
05/09/2018,22:48:47,31.5,23.44
05/09/2018,22:48:48,31.5,23.45
05/09/2018,22:48:49,31.5,23.45
05/09/2018,22:48:50,31.5,23.46
05/09/2018,22:48:51,31.5,23.45
05/09/2018,22:48:52,31.57,23.46
05/09/2018,22:48:53,31.54,23.45
05/09/2018,22:48:54,31.57,23.46
05/09/2018,22:48:55,31.68,23.46
05/09/2018,22:48:56,31.64,23.45
05/09/2018,22:48:57,31.75,23.45
05/09/2018,22:48:58,31.75,23.47
05/09/2018,22:48:59,31.75,23.46
05/09/2018,22:49:00,31.75,23.46
05/09/2018,22:49:01,31.75,23.47
05/09/2018,22:49:02,31.79,23.45
05/09/2018,22:49:03,31.93,23.46
05/09/2018,22:49:04,31.89,23.45
05/09/2018,22:49:05,31.96,23.47
05/09/2018,22:49:06,32.0,23.47
05/09/2018,22:49:07,32.0,23.46
05/09/2018,22:49:08,32.0,23.47
05/09/2018,22:49:09,32.0,23.46
05/09/2018,22:49:10,32.0,23.5
05/09/2018,22:49:11,32.0,23.49
05/09/2018,22:49:12,32.0,23.49
05/09/2018,22:49:13,32.0,23.48
05/09/2018,22:49:14,32.04,23.47
05/09/2018,22:49:15,32.07,23.5
05/09/2018,22:49:16,32.04,23.47
05/09/2018,22:49:17,32.07,23.48
05/09/2018,22:49:18,32.21,23.48
05/09/2018,22:49:19,32.25,23.5
05/09/2018,22:49:20,32.18,23.48
05/09/2018,22:49:21,32.25,23.5
05/09/2018,22:49:22,32.25,23.5
05/09/2018,22:49:23,32.25,23.5
05/09/2018,22:49:24,32.25,23.49
05/09/2018,22:49:25,32.25,23.5
05/09/2018,22:49:26,32.25,23.5
05/09/2018,22:49:27,32.25,23.49
05/09/2018,22:49:28,32.25,23.49
05/09/2018,22:49:29,32.25,23.51
05/09/2018,22:49:30,32.25,23.5
05/09/2018,22:49:31,32.25,23.5
05/09/2018,22:49:32,32.25,23.48
05/09/2018,22:49:33,32.29,23.49
05/09/2018,22:49:34,32.25,23.49
05/09/2018,22:49:35,32.25,23.5
05/09/2018,22:49:36,32.32,23.5
05/09/2018,22:49:37,32.39,23.5
05/09/2018,22:49:38,32.5,23.5
05/09/2018,22:49:39,32.5,23.5
05/09/2018,22:49:40,32.5,23.52
05/09/2018,22:49:41,32.5,23.51
05/09/2018,22:49:42,32.5,23.5
05/09/2018,22:49:43,32.5,23.52
05/09/2018,22:49:44,32.5,23.52
05/09/2018,22:49:45,32.5,23.52
05/09/2018,22:49:46,32.5,23.5
05/09/2018,22:49:47,32.61,23.53
05/09/2018,22:49:48,32.57,23.51
05/09/2018,22:49:49,32.57,23.51
05/09/2018,22:49:50,32.68,23.53
05/09/2018,22:49:51,32.75,23.53
05/09/2018,22:49:52,32.75,23.54
05/09/2018,22:49:53,32.75,23.54
05/09/2018,22:49:54,32.75,23.53
05/09/2018,22:49:55,32.75,23.54
05/09/2018,22:49:56,32.75,23.54
05/09/2018,22:49:57,32.75,23.54
05/09/2018,22:49:58,32.75,23.53
05/09/2018,22:49:59,32.75,23.54
05/09/2018,22:50:00,32.75,23.53
05/09/2018,22:50:01,32.75,23.54
05/09/2018,22:50:02,32.75,23.52
05/09/2018,22:50:03,32.75,23.55
05/09/2018,22:50:04,32.89,23.54
05/09/2018,22:50:05,32.96,23.55
05/09/2018,22:50:06,32.96,23.54
05/09/2018,22:50:07,33.0,23.54
05/09/2018,22:50:08,33.0,23.55
05/09/2018,22:50:09,33.0,23.54
05/09/2018,22:50:10,33.0,23.55
05/09/2018,22:50:11,33.0,23.56
05/09/2018,22:50:12,33.0,23.56
05/09/2018,22:50:13,33.0,23.56
05/09/2018,22:50:14,33.0,23.56
05/09/2018,22:50:15,33.0,23.55
05/09/2018,22:50:16,33.0,23.56
05/09/2018,22:50:17,33.04,23.56
05/09/2018,22:50:18,33.0,23.56
05/09/2018,22:50:19,33.11,23.56
05/09/2018,22:50:20,33.18,23.56
05/09/2018,22:50:21,33.18,23.56
05/09/2018,22:50:22,33.25,23.57
05/09/2018,22:50:23,33.25,23.57
05/09/2018,22:50:24,33.25,23.57
05/09/2018,22:50:25,33.25,23.56
05/09/2018,22:50:26,33.25,23.57
05/09/2018,22:50:27,33.25,23.57
05/09/2018,22:50:28,33.29,23.56
05/09/2018,22:50:29,33.25,23.58
05/09/2018,22:50:30,33.32,23.56
05/09/2018,22:50:31,33.36,23.56
05/09/2018,22:50:32,33.43,23.58
05/09/2018,22:50:33,33.39,23.58
05/09/2018,22:50:34,33.43,23.58
05/09/2018,22:50:35,33.5,23.59
05/09/2018,22:50:36,33.5,23.59
05/09/2018,22:50:37,33.5,23.58
05/09/2018,22:50:38,33.43,23.6
05/09/2018,22:50:39,33.5,23.61
05/09/2018,22:50:40,33.5,23.6
05/09/2018,22:50:41,33.5,23.61
05/09/2018,22:50:42,33.5,23.62
05/09/2018,22:50:43,33.5,23.6
05/09/2018,22:50:44,33.5,23.61
05/09/2018,22:50:45,33.5,23.6
05/09/2018,22:50:46,33.5,23.62
05/09/2018,22:50:47,33.5,23.61
05/09/2018,22:50:48,33.5,23.62
05/09/2018,22:50:49,33.54,23.62
05/09/2018,22:50:50,33.54,23.62
05/09/2018,22:50:51,33.61,23.62
05/09/2018,22:50:52,33.64,23.63
05/09/2018,22:50:53,33.71,23.62
05/09/2018,22:50:54,33.75,23.62
05/09/2018,22:50:55,33.75,23.62
05/09/2018,22:50:56,33.75,23.63
05/09/2018,22:50:57,33.75,23.62
05/09/2018,22:50:58,33.75,23.62
05/09/2018,22:50:59,33.75,23.62
05/09/2018,22:51:00,33.75,23.62
05/09/2018,22:51:01,33.75,23.62
05/09/2018,22:51:02,33.75,23.63
05/09/2018,22:51:03,33.75,23.65
05/09/2018,22:51:04,33.82,23.63
05/09/2018,22:51:05,33.86,23.63
05/09/2018,22:51:06,33.82,23.64
05/09/2018,22:51:07,33.86,23.66
05/09/2018,22:51:08,33.86,23.62
05/09/2018,22:51:09,33.82,23.63
05/09/2018,22:51:10,33.89,23.66
05/09/2018,22:51:11,33.82,23.64
05/09/2018,22:51:12,33.86,23.63
05/09/2018,22:51:13,33.93,23.66
05/09/2018,22:51:14,34.0,23.66
05/09/2018,22:51:15,33.96,23.67
05/09/2018,22:51:16,34.0,23.67
05/09/2018,22:51:17,34.0,23.67
05/09/2018,22:51:18,34.0,23.67
05/09/2018,22:51:19,33.96,23.67
05/09/2018,22:51:20,34.0,23.67
05/09/2018,22:51:21,34.0,23.68
05/09/2018,22:51:22,34.0,23.68
05/09/2018,22:51:23,34.0,23.66
05/09/2018,22:51:24,34.0,23.69
05/09/2018,22:51:25,34.0,23.65
05/09/2018,22:51:26,34.0,23.68
05/09/2018,22:51:27,34.0,23.68
05/09/2018,22:51:28,34.0,23.67
05/09/2018,22:51:29,34.0,23.69
05/09/2018,22:51:30,34.04,23.69
05/09/2018,22:51:31,34.0,23.69
05/09/2018,22:51:32,34.0,23.69
05/09/2018,22:51:33,34.0,23.69
05/09/2018,22:51:34,34.0,23.69
05/09/2018,22:51:35,34.0,23.69
05/09/2018,22:51:36,34.0,23.69
05/09/2018,22:51:37,34.04,23.7
05/09/2018,22:51:38,34.04,23.69
05/09/2018,22:51:39,34.04,23.69
05/09/2018,22:51:40,34.0,23.7
05/09/2018,22:51:41,34.21,23.69
05/09/2018,22:51:42,34.07,23.69
05/09/2018,22:51:43,34.14,23.69
05/09/2018,22:51:44,34.07,23.71
05/09/2018,22:51:45,34.11,23.69
05/09/2018,22:51:46,34.25,23.7
05/09/2018,22:51:47,34.25,23.69
05/09/2018,22:51:48,34.21,23.7
05/09/2018,22:51:49,34.25,23.71
05/09/2018,22:51:50,34.25,23.69
05/09/2018,22:51:51,34.25,23.71
05/09/2018,22:51:52,34.25,23.71
05/09/2018,22:51:53,34.25,23.71
05/09/2018,22:51:54,34.25,23.71
05/09/2018,22:51:55,34.25,23.72
05/09/2018,22:51:56,34.25,23.71
05/09/2018,22:51:57,34.25,23.72
05/09/2018,22:51:58,34.25,23.73
05/09/2018,22:51:59,34.25,23.72
05/09/2018,22:52:00,34.25,23.75
05/09/2018,22:52:01,34.29,23.75
05/09/2018,22:52:02,34.29,23.74
05/09/2018,22:52:03,34.25,23.75
05/09/2018,22:52:04,34.29,23.75
05/09/2018,22:52:05,34.29,23.75
05/09/2018,22:52:06,34.43,23.75
05/09/2018,22:52:07,34.43,23.74
05/09/2018,22:52:08,34.39,23.75
05/09/2018,22:52:09,34.43,23.75
05/09/2018,22:52:10,34.46,23.75
05/09/2018,22:52:11,34.39,23.76
05/09/2018,22:52:12,34.43,23.74
05/09/2018,22:52:13,34.5,23.75
05/09/2018,22:52:14,34.5,23.75
05/09/2018,22:52:15,34.5,23.75
05/09/2018,22:52:16,34.5,23.75
05/09/2018,22:52:17,34.5,23.75
05/09/2018,22:52:18,34.5,23.75
05/09/2018,22:52:19,34.5,23.76
05/09/2018,22:52:20,34.5,23.75
05/09/2018,22:52:21,34.5,23.77
05/09/2018,22:52:22,34.5,23.75
05/09/2018,22:52:23,34.5,23.76
05/09/2018,22:52:24,34.5,23.79
05/09/2018,22:52:25,34.5,23.77
05/09/2018,22:52:26,34.5,23.75
05/09/2018,22:52:27,34.5,23.77
05/09/2018,22:52:28,34.5,23.79
05/09/2018,22:52:29,34.5,23.79
05/09/2018,22:52:30,34.5,23.77
05/09/2018,22:52:31,34.5,23.77
05/09/2018,22:52:32,34.5,23.77
05/09/2018,22:52:33,34.5,23.76
05/09/2018,22:52:34,34.5,23.76
05/09/2018,22:52:35,34.5,23.79
05/09/2018,22:52:36,34.5,23.79
05/09/2018,22:52:37,34.5,23.79
05/09/2018,22:52:38,34.5,23.79
05/09/2018,22:52:39,34.5,23.79
05/09/2018,22:52:40,34.5,23.79
05/09/2018,22:52:41,34.5,23.8
05/09/2018,22:52:42,34.5,23.79
05/09/2018,22:52:43,34.5,23.79
05/09/2018,22:52:44,34.5,23.79
05/09/2018,22:52:45,34.5,23.8
05/09/2018,22:52:46,34.5,23.81
05/09/2018,22:52:47,34.5,23.81
05/09/2018,22:52:48,34.5,23.8
05/09/2018,22:52:49,34.5,23.81
05/09/2018,22:52:50,34.5,23.83
05/09/2018,22:52:51,34.54,23.81
05/09/2018,22:52:52,34.75,23.82
05/09/2018,22:52:53,34.71,23.82
05/09/2018,22:52:54,34.75,23.82
05/09/2018,22:52:55,34.75,23.82
05/09/2018,22:52:56,34.79,23.81
05/09/2018,22:52:57,34.79,23.81
05/09/2018,22:52:58,34.75,23.82
05/09/2018,22:52:59,34.75,23.85
05/09/2018,22:53:00,34.71,23.85
05/09/2018,22:53:01,34.61,23.84
05/09/2018,22:53:02,31.11,23.85
05/09/2018,22:53:03,25.96,23.84
05/09/2018,22:53:05,24.61,23.87
05/09/2018,22:53:06,22.93,23.84
05/09/2018,22:53:07,22.21,23.87
05/09/2018,22:53:08,21.71,23.85
05/09/2018,22:53:09,22.46,23.86
05/09/2018,22:53:10,23.89,23.86
05/09/2018,22:53:11,23.54,23.85
05/09/2018,22:53:12,21.11,23.87
05/09/2018,22:53:13,20.14,23.86
05/09/2018,22:53:14,19.82,23.87
05/09/2018,22:53:15,19.86,23.87
05/09/2018,22:53:16,18.96,23.84
05/09/2018,22:53:17,18.89,23.87
05/09/2018,22:53:18,19.07,23.87
05/09/2018,22:53:19,21.07,23.87
05/09/2018,22:53:20,21.82,23.87
05/09/2018,22:53:21,21.18,23.87
05/09/2018,22:53:22,20.07,23.87
05/09/2018,22:53:23,19.18,23.87
05/09/2018,22:53:24,18.75,23.86
05/09/2018,22:53:25,18.79,23.87
05/09/2018,22:53:26,20.11,23.87
05/09/2018,22:53:27,21.36,23.87
05/09/2018,22:53:28,21.93,23.87
05/09/2018,22:53:29,22.11,23.87
05/09/2018,22:53:30,22.29,23.87
05/09/2018,22:53:31,22.36,23.87
05/09/2018,22:53:32,22.71,23.87
05/09/2018,22:53:33,23.0,23.87
05/09/2018,22:53:34,23.07,23.87
05/09/2018,22:53:35,23.43,23.87
05/09/2018,22:53:36,23.75,23.87
05/09/2018,22:53:37,24.07,23.87
05/09/2018,22:53:38,24.61,23.87
05/09/2018,22:53:39,25.04,23.87
05/09/2018,22:53:40,25.29,23.87
05/09/2018,22:53:41,25.57,23.87
05/09/2018,22:53:42,25.75,23.87
05/09/2018,22:53:43,25.75,23.87
05/09/2018,22:53:44,25.86,23.87
05/09/2018,22:53:45,26.21,23.87
05/09/2018,22:53:46,26.25,23.87
05/09/2018,22:53:47,26.25,23.88
05/09/2018,22:53:48,26.04,23.87
05/09/2018,22:53:49,26.14,23.88
05/09/2018,22:53:50,26.07,23.87
05/09/2018,22:53:51,26.0,23.88
05/09/2018,22:53:52,26.21,23.87
05/09/2018,22:53:53,26.29,23.88
05/09/2018,22:53:54,26.46,23.87
05/09/2018,22:53:55,26.5,23.88
05/09/2018,22:53:56,26.71,23.88
05/09/2018,22:53:57,26.75,23.89
05/09/2018,22:53:58,26.79,23.87
05/09/2018,22:53:59,27.0,23.88
05/09/2018,22:54:00,27.0,23.89
05/09/2018,22:54:01,27.0,23.88
05/09/2018,22:54:02,27.0,23.87
05/09/2018,22:54:03,27.04,23.88
05/09/2018,22:54:04,27.0,23.87
05/09/2018,22:54:05,27.0,23.87
05/09/2018,22:54:06,27.0,23.88
05/09/2018,22:54:07,27.14,23.88
05/09/2018,22:54:08,27.25,23.87
05/09/2018,22:54:09,27.25,23.87
05/09/2018,22:54:10,27.25,23.87
05/09/2018,22:54:11,27.43,23.87
05/09/2018,22:54:12,27.5,23.87
05/09/2018,22:54:13,27.5,23.87
05/09/2018,22:54:14,27.5,23.87
05/09/2018,22:54:15,27.64,23.87
05/09/2018,22:54:16,27.75,23.87
05/09/2018,22:54:17,27.75,23.87
05/09/2018,22:54:18,27.75,23.87
05/09/2018,22:54:19,27.75,23.87
05/09/2018,22:54:20,27.75,23.87
05/09/2018,22:54:21,27.75,23.87
05/09/2018,22:54:22,27.71,23.87
05/09/2018,22:54:23,27.11,23.87
05/09/2018,22:54:24,27.0,23.87
05/09/2018,22:54:25,27.14,23.87
05/09/2018,22:54:26,27.36,23.87
05/09/2018,22:54:27,27.5,23.87
05/09/2018,22:54:28,27.5,23.87
05/09/2018,22:54:29,27.75,23.87
05/09/2018,22:54:30,27.75,23.87
05/09/2018,22:54:31,27.75,23.87
05/09/2018,22:54:32,27.75,23.87
05/09/2018,22:54:33,27.75,23.87
05/09/2018,22:54:34,27.75,23.87
05/09/2018,22:54:35,27.93,23.87
05/09/2018,22:54:36,28.0,23.87
05/09/2018,22:54:37,28.0,23.87
05/09/2018,22:54:38,28.0,23.87
05/09/2018,22:54:39,28.0,23.87
05/09/2018,22:54:40,28.0,23.87
05/09/2018,22:54:41,28.0,23.87
05/09/2018,22:54:42,28.11,23.88
05/09/2018,22:54:43,28.25,23.87
05/09/2018,22:54:44,28.18,23.87
05/09/2018,22:54:45,28.11,23.86
05/09/2018,22:54:46,28.07,23.88
05/09/2018,22:54:47,28.11,23.87
05/09/2018,22:54:48,28.07,23.88
05/09/2018,22:54:49,28.0,23.87
05/09/2018,22:54:50,28.0,23.87
05/09/2018,22:54:51,28.04,23.87
05/09/2018,22:54:52,28.11,23.88
05/09/2018,22:54:53,28.14,23.88
05/09/2018,22:54:54,28.11,23.87
05/09/2018,22:54:55,28.14,23.89
05/09/2018,22:54:56,28.25,23.89
05/09/2018,22:54:57,28.25,23.88
05/09/2018,22:54:58,28.14,23.87
05/09/2018,22:54:59,28.25,23.87
05/09/2018,22:55:00,28.25,23.87
05/09/2018,22:55:01,28.25,23.87
05/09/2018,22:55:02,28.25,23.87
05/09/2018,22:55:03,28.25,23.88
05/09/2018,22:55:04,28.25,23.87
05/09/2018,22:55:05,28.25,23.87
05/09/2018,22:55:06,28.25,23.87
05/09/2018,22:55:07,28.32,23.87
05/09/2018,22:55:08,28.36,23.87
05/09/2018,22:55:09,28.43,23.87
05/09/2018,22:55:10,28.5,23.87
05/09/2018,22:55:11,28.5,23.89
05/09/2018,22:55:12,28.5,23.89
05/09/2018,22:55:13,28.5,23.89
05/09/2018,22:55:14,28.54,23.88
05/09/2018,22:55:15,28.64,23.88
05/09/2018,22:55:16,28.75,23.9
05/09/2018,22:55:17,28.75,23.87
05/09/2018,22:55:18,28.75,23.87
05/09/2018,22:55:19,28.75,23.88
05/09/2018,22:55:20,28.75,23.87
05/09/2018,22:55:21,28.71,23.87
05/09/2018,22:55:22,28.75,23.87
05/09/2018,22:55:23,28.75,23.88
05/09/2018,22:55:24,28.75,23.88
05/09/2018,22:55:25,28.79,23.87
05/09/2018,22:55:26,28.75,23.88
05/09/2018,22:55:27,28.75,23.87
05/09/2018,22:55:28,28.75,23.89
05/09/2018,22:55:29,28.89,23.87
05/09/2018,22:55:30,29.0,23.88
05/09/2018,22:55:31,29.0,23.87
05/09/2018,22:55:32,29.0,23.88
05/09/2018,22:55:33,29.07,23.88
05/09/2018,22:55:34,29.0,23.88
05/09/2018,22:55:35,29.0,23.89
05/09/2018,22:55:36,29.0,23.88
05/09/2018,22:55:37,29.0,23.89
05/09/2018,22:55:38,29.0,23.88
05/09/2018,22:55:39,29.04,23.88
05/09/2018,22:55:40,29.18,23.88
05/09/2018,22:55:41,29.18,23.88
05/09/2018,22:55:42,29.25,23.88
05/09/2018,22:55:43,29.25,23.9
05/09/2018,22:55:44,29.25,23.91
05/09/2018,22:55:45,29.32,23.88
05/09/2018,22:55:46,29.25,23.89
05/09/2018,22:55:47,29.32,23.9
05/09/2018,22:55:48,29.46,23.9
05/09/2018,22:55:49,29.46,23.88
05/09/2018,22:55:50,29.5,23.91
05/09/2018,22:55:51,29.5,23.89
05/09/2018,22:55:52,29.5,23.89
05/09/2018,22:55:53,29.5,23.88
05/09/2018,22:55:54,29.5,23.91
05/09/2018,22:55:55,29.5,23.89
05/09/2018,22:55:56,29.54,23.9
05/09/2018,22:55:57,29.54,23.9
05/09/2018,22:55:58,29.5,23.92
05/09/2018,22:55:59,29.54,23.9
05/09/2018,22:56:00,29.54,23.91
05/09/2018,22:56:01,29.64,23.91
05/09/2018,22:56:02,29.61,23.91
05/09/2018,22:56:03,29.71,23.91
05/09/2018,22:56:04,29.68,23.88
05/09/2018,22:56:05,29.75,23.92
05/09/2018,22:56:06,29.71,23.92
05/09/2018,22:56:07,29.75,23.89
05/09/2018,22:56:08,29.96,23.94
05/09/2018,22:56:09,29.79,23.9
05/09/2018,22:56:10,29.86,23.91
05/09/2018,22:56:11,29.89,23.92
05/09/2018,22:56:12,30.0,23.9
05/09/2018,22:56:13,30.0,23.91
05/09/2018,22:56:14,30.0,23.93
05/09/2018,22:56:15,30.0,23.91
05/09/2018,22:56:16,30.0,23.92
05/09/2018,22:56:17,30.0,23.91
05/09/2018,22:56:18,30.0,23.91
05/09/2018,22:56:19,30.18,23.93
05/09/2018,22:56:20,30.18,23.93
05/09/2018,22:56:21,30.18,23.93
05/09/2018,22:56:22,30.25,23.92
05/09/2018,22:56:23,30.25,23.91
05/09/2018,22:56:24,30.25,23.92
05/09/2018,22:56:25,30.25,23.94
05/09/2018,22:56:26,30.32,23.92
05/09/2018,22:56:27,30.43,23.94
05/09/2018,22:56:28,30.5,23.94
05/09/2018,22:56:29,30.5,23.93
05/09/2018,22:56:30,30.5,23.93
05/09/2018,22:56:31,30.5,23.94
05/09/2018,22:56:32,30.5,23.94
05/09/2018,22:56:33,30.5,23.93
05/09/2018,22:56:34,30.5,23.91
05/09/2018,22:56:35,30.5,23.94
05/09/2018,22:56:36,30.5,23.94
05/09/2018,22:56:37,30.5,23.93
05/09/2018,22:56:38,30.5,23.94
05/09/2018,22:56:39,30.5,23.93
05/09/2018,22:56:40,30.57,23.94
05/09/2018,22:56:41,30.71,23.94
05/09/2018,22:56:42,30.75,23.94
05/09/2018,22:56:43,30.75,23.94
05/09/2018,22:56:44,30.75,23.92
05/09/2018,22:56:45,30.75,23.93
05/09/2018,22:56:46,30.75,23.95
05/09/2018,22:56:47,30.75,23.94
05/09/2018,22:56:48,30.75,23.94
05/09/2018,22:56:49,30.54,23.94
05/09/2018,22:56:50,30.5,23.94
05/09/2018,22:56:51,30.64,23.94
05/09/2018,22:56:52,30.71,23.94
05/09/2018,22:56:53,30.71,23.94
05/09/2018,22:56:54,30.64,23.94
05/09/2018,22:56:55,30.68,23.95
05/09/2018,22:56:56,30.68,23.96
05/09/2018,22:56:57,30.54,23.94
05/09/2018,22:56:58,30.68,23.94
05/09/2018,22:56:59,30.75,23.95
05/09/2018,22:57:00,30.75,23.95
05/09/2018,22:57:01,30.86,23.94
05/09/2018,22:57:02,31.0,23.94
05/09/2018,22:57:03,31.0,23.93
05/09/2018,22:57:04,31.0,23.94
05/09/2018,22:57:05,31.18,23.95
05/09/2018,22:57:06,31.25,23.95
05/09/2018,22:57:07,31.29,23.95
05/09/2018,22:57:08,31.43,23.96
05/09/2018,22:57:09,31.46,23.94
05/09/2018,22:57:10,31.5,23.94
05/09/2018,22:57:11,31.5,23.95
05/09/2018,22:57:12,31.5,23.94
05/09/2018,22:57:13,31.64,23.95
05/09/2018,22:57:14,31.75,23.94
05/09/2018,22:57:15,31.75,23.95
05/09/2018,22:57:16,31.75,23.96
05/09/2018,22:57:17,31.75,23.94
05/09/2018,22:57:18,31.75,23.96
05/09/2018,22:57:19,31.75,23.94
05/09/2018,22:57:20,31.75,23.95
05/09/2018,22:57:21,31.75,23.96
05/09/2018,22:57:22,31.79,23.95
05/09/2018,22:57:23,31.79,23.96
05/09/2018,22:57:24,31.86,23.97
05/09/2018,22:57:25,31.82,23.98
05/09/2018,22:57:26,31.86,23.97
05/09/2018,22:57:27,31.93,23.97
05/09/2018,22:57:28,31.93,23.98
05/09/2018,22:57:29,32.0,23.99
05/09/2018,22:57:30,32.0,23.98
